{
	"hangman": {
		"codeName": "bitcoin westham",
		"major": 0,
		"minor": 2,
		"hotfix": 3,
		"appPackageId": "com.gde.luzanky.hangman"
	},
	"bombarder": {
		"codeName": "kuurovec lyykozrout",
		"major": 0,
		"minor": 1,
		"hotfix": 1,
		"appPackageId": "com.gde.luzanky.bombarder"
	},
	"pong": {
		"codeName": "pang chien-kuo",
		"major": 0,
		"minor": 1,
		"hotfix": 1,
		"appPackageId": "com.gde.luzanky.pong"
	},
	"pexeso": {
		"codeName": "polotmavy citron",
		"major": 0,
		"minor": 1,
		"hotfix": 2,
		"appPackageId": "com.gde.luzanky.pexeso"
	},
	"lode": {
		"codeName": "cukr, michatko, ubrousek",
		"major": 0,
		"minor": 1,
		"hotfix": 1,
		"appPackageId": "com.gde.luzanky.lode"
	},
	"box": {
		"codeName": "sveraci kazajka zaabava",
		"major": 0,
		"minor": 1,
		"hotfix": 0,
		"appPackageId": "com.gde.luzanky.box"
	},
	"doomguy": {
		"codeName": "im too young to die",
		"major": 0,
		"minor": 1,
		"hotfix": 1,
		"appPackageId": "com.gde.luzanky.dguy"
	},
	"trex": {
		"codeName": "run, dino, run!",
		"major": 0,
		"minor": 1,
		"hotfix": 0,
		"appPackageId": "com.gde.luzanky.trex"
	}
}
