{
	"unitScale": 1.0,
	"origin": {
		"x": 0.0,
		"y": 1.0
	},
	"groups": [
		{
			"parentName": "", "name": "[0]left-1", "origin": {"x": -1.5, "y": 1.0},
			"points": []
		},
			{
				"parentName": "[0]left-1", "name": "[1]left-2.1", "origin": {"x": -1.0, "y": 1.0},
				"points": []
			},
			{
				"parentName": "[0]left-1", "name": "[1]left-2.2", "origin": {"x": 1.0, "y": 1.0},
				"points": []
			},
			{
				"parentName": "[1]left-2.1", "name": "[1]left-3.1", "origin": {"x": -0.5, "y": 1.0},
				"points": []
			},
			{
				"parentName": "[1]left-2.1", "name": "[1]left-3.2", "origin": {"x": 0.5, "y": 1.0},
				"points": []
			},
			{
				"parentName": "[1]left-2.2", "name": "[1]left-3.3", "origin": {"x": -0.5, "y": 1.0},
				"points": []
			},
			{
				"parentName": "[1]left-2.2", "name": "[1]left-3.4", "origin": {"x": 0.5, "y": 1.0},
				"points": []
			},
		{
			"parentName": "", "name": "[0]right-1", "origin": {"x": 1.5, "y": 1.0},
				"points": []
		},
			{
				"parentName": "[0]right-1", "name": "[1]right-2.1", "origin": {"x": -1.0, "y": 1.0},
				"points": []
			},
			{
				"parentName": "[0]right-1", "name": "[1]right-2.2", "origin": {"x": 1.0, "y": 1.0},
				"points": []
			},
			{
				"parentName": "[1]right-2.1", "name": "[2]right-3.1", "origin": {"x": 0.0, "y": 1.0},
				"points": []
			},
			{
				"parentName": "[1]right-2.2", "name": "[2]right-3.2", "origin": {"x": 0.0, "y": 1.0},
				"points": []
			}
	]
}
