{
	"gde.tips": [
		{
			"name": "gde.tips [gfx]",
			"assetId": [
				"gde/*",
				"tintColorTexture*",
				"shaders/*"
			],
			"author": "j3nda@gde.tips",	
			"downloadUrl": "http://gde.tips/trademarks/third-party-legal-notices/",
			"licenseUrl": "http://gde.tips/trademarks/third-party-legal-notices/"
		}
	],
	"derived": {
		"animations": [
			{
				"name": "sand clock [8bit]",
				"assetId": "gde/animations/clock-sand/187x187",
				"author": "Free Animated Gifs Hour Glass - ClipArt Best",	
				"downloadUrl": "http://www.clipartbest.com/cliparts/KTn/4n9/KTn4n98Tq.gif",
				"homepageUrl": "http://www.clipartbest.com/clipart-aTq6bAxEc"
			},
			{
				"name": "sand clock [af7]",
				"assetId": "gde/animations/clock-sand/110x110",
				"author": "artrayd",
				"downloadUrl": "https://cdn.dribbble.com/users/479985/screenshots/10777708/media/af7ad2e66c16511f21b3f42718f211d2.gif",
				"homepageUrl": "https://dribbble.com/shots/10777708-Sand-Clock-Loader-Animation/attachments/2444687",
				"authorUrl": "https://dribbble.com/artrayd"
			},
			{
				"name": "Burst Animation Accents Green Screen (HelloMaphie Inspired)",
				"assetId": "animations/click",
				"author": "editinghacksbylala",
				"authorUrl": "https://www.youtube.com/channel/UC5xy_yoJJz--wK9GXgfOVLg",
				"downloadUrl": "https://www.youtube.com/watch?v=98D05pkTPUM",
				"licenseText": "I hope you guys like these animations. Please do give credit if you use any of my footage :)"
			}
		],
		"ui": [
			{
				"name": "exit button",
				"assetId": "gde/button-exit",
				"author": "j3nda@gde.tips",	
				"downloadUrl": "https://www.flaticon.com/free-icon/exit_561204?k=1648055077955",
				"homepageUrl": "https://www.flaticon.com/free-icons/exit",
				"licenseText": "License summary\nOur license allows you to use the content:\n\nFor commercial and personal projects\nOn digital or printed media,\nFor an unlimited number of times and perpetually\nAnywhere in the world\nTo make modifications and derived works"
			},
			{
				"name": "MultiTouch-Interface/Mouse-theme/Pinch",
				"assetId": "gestures/indexFinger",
				"author": "BenBois",
				"authorUrl": "https://openclipart.org/artist/BenBois",
				"downloadUrl": "https://openclipart.org/detail/160555/multitouchinterface-mousetheme-pinch",
				"licenseUrl": "https://openclipart.org/share"
			}
		],
		"fonts": [
			{
				"name": "Born2bSporty",
				"assetId": "fonts/Born2bSportyV2-16x16",
				"author": "JapanYoshi",	
				"downloadUrl": "https://www.pentacom.jp/pentacom/bitfontmaker2/gallery/?id=383&action=dl",
				"homepageUrl": "http://www.pentacom.jp/pentacom/bitfontmaker2/gallery/?id=383",
				"licenseUrl": "https://creativecommons.org/licenses/publicdomain"
			},
			{
				"name": "VT323",
				"assetId": "fonts/VT323-Regular",
				"author": "Peter Hull",	
				"downloadUrl": "https://fonts.google.com/download?family=VT323",
				"homepageUrl": "https://fonts.google.com/specimen/VT323",
				"licenseUrl": "https://scripts.sil.org/cms/scripts/page.php?site_id=nrsi&id=OFL"
			}
		],
		"sfx": [
			{
				"name": "little robot",
				"assetId": "sounds/LittleRobotSoundFactory",
				"author": "LittleRobotSoundFactory",
				"downloadUrl": "https://freesound.org/people/LittleRobotSoundFactory/packs/16681",
				"homepageUrl": "https://freesound.org/people/LittleRobotSoundFactory",
				"licenseUrl": "http://creativecommons.org/licenses/by/3.0"
			}
		]
	}
}
